^C:\USERS\NGUYEN HO QUOC THINH\DOCUMENTS\CODE EXERCISES\LTWIN\1512544.PAINT2.0\1512544.PAINT2.0\MYPAINT1.0\MYPAINT1.0\RIBBON.XML
C:\USERS\NGUYEN HO QUOC THINH\DOCUMENTS\CODE EXERCISES\LTWIN\1512544.PAINT2.0\1512544.PAINT2.0\MYPAINT1.0\MYPAINT1.0\RIBBON.BML
C:\USERS\NGUYEN HO QUOC THINH\DOCUMENTS\CODE EXERCISES\LTWIN\1512544.PAINT2.0\1512544.PAINT2.0\MYPAINT1.0\MYPAINT1.0\RIBBONIDS.H
C:\USERS\NGUYEN HO QUOC THINH\DOCUMENTS\CODE EXERCISES\LTWIN\1512544.PAINT2.0\1512544.PAINT2.0\MYPAINT1.0\MYPAINT1.0\RIBBON.RC
